************* Module k2
k2.py:1:0: C0114: Missing module docstring (missing-module-docstring)
k2.py:1:0: C0103: Constant name "a" doesn't conform to UPPER_CASE naming style (invalid-name)
k2.py:2:0: C0103: Constant name "b" doesn't conform to UPPER_CASE naming style (invalid-name)
k2.py:3:0: E0602: Undefined variable 'Print' (undefined-variable)
k2.py:4:0: W0104: Statement seems to have no effect (pointless-statement)
k2.py:4:0: E0602: Undefined variable 'khasbcjhv' (undefined-variable)


Report
======
4 statements analysed.

Statistics by type
------------------

+---------+-------+-----------+-----------+------------+---------+
|type     |number |old number |difference |%documented |%badname |
+=========+=======+===========+===========+============+=========+
|module   |1      |NC         |NC         |0.00        |0.00     |
+---------+-------+-----------+-----------+------------+---------+
|class    |0      |NC         |NC         |0           |0        |
+---------+-------+-----------+-----------+------------+---------+
|method   |0      |NC         |NC         |0           |0        |
+---------+-------+-----------+-----------+------------+---------+
|function |0      |NC         |NC         |0           |0        |
+---------+-------+-----------+-----------+------------+---------+



Raw metrics
-----------

+----------+-------+------+---------+-----------+
|type      |number |%     |previous |difference |
+==========+=======+======+=========+===========+
|code      |5      |83.33 |NC       |NC         |
+----------+-------+------+---------+-----------+
|docstring |0      |0.00  |NC       |NC         |
+----------+-------+------+---------+-----------+
|comment   |0      |0.00  |NC       |NC         |
+----------+-------+------+---------+-----------+
|empty     |1      |16.67 |NC       |NC         |
+----------+-------+------+---------+-----------+



Duplication
-----------

+-------------------------+------+---------+-----------+
|                         |now   |previous |difference |
+=========================+======+=========+===========+
|nb duplicated lines      |0     |NC       |NC         |
+-------------------------+------+---------+-----------+
|percent duplicated lines |0.000 |NC       |NC         |
+-------------------------+------+---------+-----------+



Messages by category
--------------------

+-----------+-------+---------+-----------+
|type       |number |previous |difference |
+===========+=======+=========+===========+
|convention |3      |NC       |NC         |
+-----------+-------+---------+-----------+
|refactor   |0      |NC       |NC         |
+-----------+-------+---------+-----------+
|warning    |1      |NC       |NC         |
+-----------+-------+---------+-----------+
|error      |2      |NC       |NC         |
+-----------+-------+---------+-----------+



Messages
--------

+-------------------------+------------+
|message id               |occurrences |
+=========================+============+
|undefined-variable       |2           |
+-------------------------+------------+
|invalid-name             |2           |
+-------------------------+------------+
|pointless-statement      |1           |
+-------------------------+------------+
|missing-module-docstring |1           |
+-------------------------+------------+




----------------------------------------------------------------------
Your code has been rated at -25.00/10 (previous run: -25.00/10, +0.00)

************* Module k2
k2.py:1:0: C0114: Missing module docstring (missing-module-docstring)
k2.py:1:0: C0103: Constant name "a" doesn't conform to UPPER_CASE naming style (invalid-name)
k2.py:2:0: C0103: Constant name "b" doesn't conform to UPPER_CASE naming style (invalid-name)
k2.py:3:0: E0602: Undefined variable 'Print' (undefined-variable)
k2.py:4:0: W0104: Statement seems to have no effect (pointless-statement)
k2.py:4:0: E0602: Undefined variable 'khasbcjhv' (undefined-variable)


Report
======
4 statements analysed.

Statistics by type
------------------

+---------+-------+-----------+-----------+------------+---------+
|type     |number |old number |difference |%documented |%badname |
+=========+=======+===========+===========+============+=========+
|module   |1      |NC         |NC         |0.00        |0.00     |
+---------+-------+-----------+-----------+------------+---------+
|class    |0      |NC         |NC         |0           |0        |
+---------+-------+-----------+-----------+------------+---------+
|method   |0      |NC         |NC         |0           |0        |
+---------+-------+-----------+-----------+------------+---------+
|function |0      |NC         |NC         |0           |0        |
+---------+-------+-----------+-----------+------------+---------+



Raw metrics
-----------

+----------+-------+------+---------+-----------+
|type      |number |%     |previous |difference |
+==========+=======+======+=========+===========+
|code      |5      |83.33 |NC       |NC         |
+----------+-------+------+---------+-----------+
|docstring |0      |0.00  |NC       |NC         |
+----------+-------+------+---------+-----------+
|comment   |0      |0.00  |NC       |NC         |
+----------+-------+------+---------+-----------+
|empty     |1      |16.67 |NC       |NC         |
+----------+-------+------+---------+-----------+



Duplication
-----------

+-------------------------+------+---------+-----------+
|                         |now   |previous |difference |
+=========================+======+=========+===========+
|nb duplicated lines      |0     |NC       |NC         |
+-------------------------+------+---------+-----------+
|percent duplicated lines |0.000 |NC       |NC         |
+-------------------------+------+---------+-----------+



Messages by category
--------------------

+-----------+-------+---------+-----------+
|type       |number |previous |difference |
+===========+=======+=========+===========+
|convention |3      |NC       |NC         |
+-----------+-------+---------+-----------+
|refactor   |0      |NC       |NC         |
+-----------+-------+---------+-----------+
|warning    |1      |NC       |NC         |
+-----------+-------+---------+-----------+
|error      |2      |NC       |NC         |
+-----------+-------+---------+-----------+



Messages
--------

+-------------------------+------------+
|message id               |occurrences |
+=========================+============+
|undefined-variable       |2           |
+-------------------------+------------+
|invalid-name             |2           |
+-------------------------+------------+
|pointless-statement      |1           |
+-------------------------+------------+
|missing-module-docstring |1           |
+-------------------------+------------+




----------------------------------------------------------------------
Your code has been rated at -25.00/10 (previous run: -25.00/10, +0.00)

************* Module k2
k2.py:1:0: C0114: Missing module docstring (missing-module-docstring)
k2.py:1:0: C0103: Constant name "a" doesn't conform to UPPER_CASE naming style (invalid-name)
k2.py:2:0: C0103: Constant name "b" doesn't conform to UPPER_CASE naming style (invalid-name)
k2.py:3:0: E0602: Undefined variable 'Print' (undefined-variable)
k2.py:4:0: W0104: Statement seems to have no effect (pointless-statement)
k2.py:4:0: E0602: Undefined variable 'khasbcjhv' (undefined-variable)


Report
======
4 statements analysed.

Statistics by type
------------------

+---------+-------+-----------+-----------+------------+---------+
|type     |number |old number |difference |%documented |%badname |
+=========+=======+===========+===========+============+=========+
|module   |1      |NC         |NC         |0.00        |0.00     |
+---------+-------+-----------+-----------+------------+---------+
|class    |0      |NC         |NC         |0           |0        |
+---------+-------+-----------+-----------+------------+---------+
|method   |0      |NC         |NC         |0           |0        |
+---------+-------+-----------+-----------+------------+---------+
|function |0      |NC         |NC         |0           |0        |
+---------+-------+-----------+-----------+------------+---------+



Raw metrics
-----------

+----------+-------+------+---------+-----------+
|type      |number |%     |previous |difference |
+==========+=======+======+=========+===========+
|code      |5      |83.33 |NC       |NC         |
+----------+-------+------+---------+-----------+
|docstring |0      |0.00  |NC       |NC         |
+----------+-------+------+---------+-----------+
|comment   |0      |0.00  |NC       |NC         |
+----------+-------+------+---------+-----------+
|empty     |1      |16.67 |NC       |NC         |
+----------+-------+------+---------+-----------+



Duplication
-----------

+-------------------------+------+---------+-----------+
|                         |now   |previous |difference |
+=========================+======+=========+===========+
|nb duplicated lines      |0     |NC       |NC         |
+-------------------------+------+---------+-----------+
|percent duplicated lines |0.000 |NC       |NC         |
+-------------------------+------+---------+-----------+



Messages by category
--------------------

+-----------+-------+---------+-----------+
|type       |number |previous |difference |
+===========+=======+=========+===========+
|convention |3      |NC       |NC         |
+-----------+-------+---------+-----------+
|refactor   |0      |NC       |NC         |
+-----------+-------+---------+-----------+
|warning    |1      |NC       |NC         |
+-----------+-------+---------+-----------+
|error      |2      |NC       |NC         |
+-----------+-------+---------+-----------+



Messages
--------

+-------------------------+------------+
|message id               |occurrences |
+=========================+============+
|undefined-variable       |2           |
+-------------------------+------------+
|invalid-name             |2           |
+-------------------------+------------+
|pointless-statement      |1           |
+-------------------------+------------+
|missing-module-docstring |1           |
+-------------------------+------------+




----------------------------------------------------------------------
Your code has been rated at -25.00/10 (previous run: -25.00/10, +0.00)

************* Module k2
k2.py:1:0: C0114: Missing module docstring (missing-module-docstring)
k2.py:1:0: C0103: Constant name "a" doesn't conform to UPPER_CASE naming style (invalid-name)
k2.py:2:0: C0103: Constant name "b" doesn't conform to UPPER_CASE naming style (invalid-name)
k2.py:3:0: E0602: Undefined variable 'Print' (undefined-variable)
k2.py:4:0: W0104: Statement seems to have no effect (pointless-statement)
k2.py:4:0: E0602: Undefined variable 'khasbcjhv' (undefined-variable)


Report
======
4 statements analysed.

Statistics by type
------------------

+---------+-------+-----------+-----------+------------+---------+
|type     |number |old number |difference |%documented |%badname |
+=========+=======+===========+===========+============+=========+
|module   |1      |NC         |NC         |0.00        |0.00     |
+---------+-------+-----------+-----------+------------+---------+
|class    |0      |NC         |NC         |0           |0        |
+---------+-------+-----------+-----------+------------+---------+
|method   |0      |NC         |NC         |0           |0        |
+---------+-------+-----------+-----------+------------+---------+
|function |0      |NC         |NC         |0           |0        |
+---------+-------+-----------+-----------+------------+---------+



Raw metrics
-----------

+----------+-------+------+---------+-----------+
|type      |number |%     |previous |difference |
+==========+=======+======+=========+===========+
|code      |5      |83.33 |NC       |NC         |
+----------+-------+------+---------+-----------+
|docstring |0      |0.00  |NC       |NC         |
+----------+-------+------+---------+-----------+
|comment   |0      |0.00  |NC       |NC         |
+----------+-------+------+---------+-----------+
|empty     |1      |16.67 |NC       |NC         |
+----------+-------+------+---------+-----------+



Duplication
-----------

+-------------------------+------+---------+-----------+
|                         |now   |previous |difference |
+=========================+======+=========+===========+
|nb duplicated lines      |0     |NC       |NC         |
+-------------------------+------+---------+-----------+
|percent duplicated lines |0.000 |NC       |NC         |
+-------------------------+------+---------+-----------+



Messages by category
--------------------

+-----------+-------+---------+-----------+
|type       |number |previous |difference |
+===========+=======+=========+===========+
|convention |3      |NC       |NC         |
+-----------+-------+---------+-----------+
|refactor   |0      |NC       |NC         |
+-----------+-------+---------+-----------+
|warning    |1      |NC       |NC         |
+-----------+-------+---------+-----------+
|error      |2      |NC       |NC         |
+-----------+-------+---------+-----------+



Messages
--------

+-------------------------+------------+
|message id               |occurrences |
+=========================+============+
|undefined-variable       |2           |
+-------------------------+------------+
|invalid-name             |2           |
+-------------------------+------------+
|pointless-statement      |1           |
+-------------------------+------------+
|missing-module-docstring |1           |
+-------------------------+------------+




----------------------------------------------------------------------
Your code has been rated at -25.00/10 (previous run: -25.00/10, +0.00)

