************* Module kk
Test\kk.py:11:0: W0311: Bad indentation. Found 13 spaces, expected 12 (bad-indentation)
Test\kk.py:12:0: W0311: Bad indentation. Found 13 spaces, expected 12 (bad-indentation)
Test\kk.py:19:0: C0305: Trailing newlines (trailing-newlines)
Test\kk.py:1:0: C0114: Missing module docstring (missing-module-docstring)
Test\kk.py:11:13: C0103: Constant name "l" doesn't conform to UPPER_CASE naming style (invalid-name)
Test\kk.py:2:0: C0411: standard import "import os" should be placed before "from pylint import epylint as ep" (wrong-import-order)


Report
======
8 statements analysed.

Statistics by type
------------------

+---------+-------+-----------+-----------+------------+---------+
|type     |number |old number |difference |%documented |%badname |
+=========+=======+===========+===========+============+=========+
|module   |1      |NC         |NC         |0.00        |0.00     |
+---------+-------+-----------+-----------+------------+---------+
|class    |0      |NC         |NC         |0           |0        |
+---------+-------+-----------+-----------+------------+---------+
|method   |0      |NC         |NC         |0           |0        |
+---------+-------+-----------+-----------+------------+---------+
|function |0      |NC         |NC         |0           |0        |
+---------+-------+-----------+-----------+------------+---------+



External dependencies
---------------------
::

    pylint 
      \-epylint (kk)



Raw metrics
-----------

+----------+-------+------+---------+-----------+
|type      |number |%     |previous |difference |
+==========+=======+======+=========+===========+
|code      |10     |47.62 |NC       |NC         |
+----------+-------+------+---------+-----------+
|docstring |0      |0.00  |NC       |NC         |
+----------+-------+------+---------+-----------+
|comment   |2      |9.52  |NC       |NC         |
+----------+-------+------+---------+-----------+
|empty     |9      |42.86 |NC       |NC         |
+----------+-------+------+---------+-----------+



Duplication
-----------

+-------------------------+------+---------+-----------+
|                         |now   |previous |difference |
+=========================+======+=========+===========+
|nb duplicated lines      |0     |NC       |NC         |
+-------------------------+------+---------+-----------+
|percent duplicated lines |0.000 |NC       |NC         |
+-------------------------+------+---------+-----------+



Messages by category
--------------------

+-----------+-------+---------+-----------+
|type       |number |previous |difference |
+===========+=======+=========+===========+
|convention |4      |NC       |NC         |
+-----------+-------+---------+-----------+
|refactor   |0      |NC       |NC         |
+-----------+-------+---------+-----------+
|warning    |2      |NC       |NC         |
+-----------+-------+---------+-----------+
|error      |0      |NC       |NC         |
+-----------+-------+---------+-----------+



Messages
--------

+-------------------------+------------+
|message id               |occurrences |
+=========================+============+
|bad-indentation          |2           |
+-------------------------+------------+
|wrong-import-order       |1           |
+-------------------------+------------+
|trailing-newlines        |1           |
+-------------------------+------------+
|missing-module-docstring |1           |
+-------------------------+------------+
|invalid-name             |1           |
+-------------------------+------------+




------------------------------------------------------------------
Your code has been rated at 2.50/10 (previous run: 2.50/10, +0.00)

************* Module kk
Test\kk.py:11:0: W0311: Bad indentation. Found 13 spaces, expected 12 (bad-indentation)
Test\kk.py:12:0: W0311: Bad indentation. Found 13 spaces, expected 12 (bad-indentation)
Test\kk.py:19:0: C0305: Trailing newlines (trailing-newlines)
Test\kk.py:1:0: C0114: Missing module docstring (missing-module-docstring)
Test\kk.py:11:13: C0103: Constant name "l" doesn't conform to UPPER_CASE naming style (invalid-name)
Test\kk.py:2:0: C0411: standard import "import os" should be placed before "from pylint import epylint as ep" (wrong-import-order)


Report
======
8 statements analysed.

Statistics by type
------------------

+---------+-------+-----------+-----------+------------+---------+
|type     |number |old number |difference |%documented |%badname |
+=========+=======+===========+===========+============+=========+
|module   |1      |NC         |NC         |0.00        |0.00     |
+---------+-------+-----------+-----------+------------+---------+
|class    |0      |NC         |NC         |0           |0        |
+---------+-------+-----------+-----------+------------+---------+
|method   |0      |NC         |NC         |0           |0        |
+---------+-------+-----------+-----------+------------+---------+
|function |0      |NC         |NC         |0           |0        |
+---------+-------+-----------+-----------+------------+---------+



External dependencies
---------------------
::

    pylint 
      \-epylint (kk)



Raw metrics
-----------

+----------+-------+------+---------+-----------+
|type      |number |%     |previous |difference |
+==========+=======+======+=========+===========+
|code      |10     |47.62 |NC       |NC         |
+----------+-------+------+---------+-----------+
|docstring |0      |0.00  |NC       |NC         |
+----------+-------+------+---------+-----------+
|comment   |2      |9.52  |NC       |NC         |
+----------+-------+------+---------+-----------+
|empty     |9      |42.86 |NC       |NC         |
+----------+-------+------+---------+-----------+



Duplication
-----------

+-------------------------+------+---------+-----------+
|                         |now   |previous |difference |
+=========================+======+=========+===========+
|nb duplicated lines      |0     |NC       |NC         |
+-------------------------+------+---------+-----------+
|percent duplicated lines |0.000 |NC       |NC         |
+-------------------------+------+---------+-----------+



Messages by category
--------------------

+-----------+-------+---------+-----------+
|type       |number |previous |difference |
+===========+=======+=========+===========+
|convention |4      |NC       |NC         |
+-----------+-------+---------+-----------+
|refactor   |0      |NC       |NC         |
+-----------+-------+---------+-----------+
|warning    |2      |NC       |NC         |
+-----------+-------+---------+-----------+
|error      |0      |NC       |NC         |
+-----------+-------+---------+-----------+



Messages
--------

+-------------------------+------------+
|message id               |occurrences |
+=========================+============+
|bad-indentation          |2           |
+-------------------------+------------+
|wrong-import-order       |1           |
+-------------------------+------------+
|trailing-newlines        |1           |
+-------------------------+------------+
|missing-module-docstring |1           |
+-------------------------+------------+
|invalid-name             |1           |
+-------------------------+------------+




------------------------------------------------------------------
Your code has been rated at 2.50/10 (previous run: 2.50/10, +0.00)

************* Module kk
Test\kk.py:11:0: W0311: Bad indentation. Found 13 spaces, expected 12 (bad-indentation)
Test\kk.py:12:0: W0311: Bad indentation. Found 13 spaces, expected 12 (bad-indentation)
Test\kk.py:19:0: C0305: Trailing newlines (trailing-newlines)
Test\kk.py:1:0: C0114: Missing module docstring (missing-module-docstring)
Test\kk.py:11:13: C0103: Constant name "l" doesn't conform to UPPER_CASE naming style (invalid-name)
Test\kk.py:2:0: C0411: standard import "import os" should be placed before "from pylint import epylint as ep" (wrong-import-order)


Report
======
8 statements analysed.

Statistics by type
------------------

+---------+-------+-----------+-----------+------------+---------+
|type     |number |old number |difference |%documented |%badname |
+=========+=======+===========+===========+============+=========+
|module   |1      |NC         |NC         |0.00        |0.00     |
+---------+-------+-----------+-----------+------------+---------+
|class    |0      |NC         |NC         |0           |0        |
+---------+-------+-----------+-----------+------------+---------+
|method   |0      |NC         |NC         |0           |0        |
+---------+-------+-----------+-----------+------------+---------+
|function |0      |NC         |NC         |0           |0        |
+---------+-------+-----------+-----------+------------+---------+



External dependencies
---------------------
::

    pylint 
      \-epylint (kk)



Raw metrics
-----------

+----------+-------+------+---------+-----------+
|type      |number |%     |previous |difference |
+==========+=======+======+=========+===========+
|code      |10     |47.62 |NC       |NC         |
+----------+-------+------+---------+-----------+
|docstring |0      |0.00  |NC       |NC         |
+----------+-------+------+---------+-----------+
|comment   |2      |9.52  |NC       |NC         |
+----------+-------+------+---------+-----------+
|empty     |9      |42.86 |NC       |NC         |
+----------+-------+------+---------+-----------+



Duplication
-----------

+-------------------------+------+---------+-----------+
|                         |now   |previous |difference |
+=========================+======+=========+===========+
|nb duplicated lines      |0     |NC       |NC         |
+-------------------------+------+---------+-----------+
|percent duplicated lines |0.000 |NC       |NC         |
+-------------------------+------+---------+-----------+



Messages by category
--------------------

+-----------+-------+---------+-----------+
|type       |number |previous |difference |
+===========+=======+=========+===========+
|convention |4      |NC       |NC         |
+-----------+-------+---------+-----------+
|refactor   |0      |NC       |NC         |
+-----------+-------+---------+-----------+
|warning    |2      |NC       |NC         |
+-----------+-------+---------+-----------+
|error      |0      |NC       |NC         |
+-----------+-------+---------+-----------+



Messages
--------

+-------------------------+------------+
|message id               |occurrences |
+=========================+============+
|bad-indentation          |2           |
+-------------------------+------------+
|wrong-import-order       |1           |
+-------------------------+------------+
|trailing-newlines        |1           |
+-------------------------+------------+
|missing-module-docstring |1           |
+-------------------------+------------+
|invalid-name             |1           |
+-------------------------+------------+




------------------------------------------------------------------
Your code has been rated at 2.50/10 (previous run: 2.50/10, +0.00)

************* Module kk
Test\kk.py:11:0: W0311: Bad indentation. Found 13 spaces, expected 12 (bad-indentation)
Test\kk.py:12:0: W0311: Bad indentation. Found 13 spaces, expected 12 (bad-indentation)
Test\kk.py:19:0: C0305: Trailing newlines (trailing-newlines)
Test\kk.py:1:0: C0114: Missing module docstring (missing-module-docstring)
Test\kk.py:11:13: C0103: Constant name "l" doesn't conform to UPPER_CASE naming style (invalid-name)
Test\kk.py:2:0: C0411: standard import "import os" should be placed before "from pylint import epylint as ep" (wrong-import-order)


Report
======
8 statements analysed.

Statistics by type
------------------

+---------+-------+-----------+-----------+------------+---------+
|type     |number |old number |difference |%documented |%badname |
+=========+=======+===========+===========+============+=========+
|module   |1      |NC         |NC         |0.00        |0.00     |
+---------+-------+-----------+-----------+------------+---------+
|class    |0      |NC         |NC         |0           |0        |
+---------+-------+-----------+-----------+------------+---------+
|method   |0      |NC         |NC         |0           |0        |
+---------+-------+-----------+-----------+------------+---------+
|function |0      |NC         |NC         |0           |0        |
+---------+-------+-----------+-----------+------------+---------+



External dependencies
---------------------
::

    pylint 
      \-epylint (kk)



Raw metrics
-----------

+----------+-------+------+---------+-----------+
|type      |number |%     |previous |difference |
+==========+=======+======+=========+===========+
|code      |10     |47.62 |NC       |NC         |
+----------+-------+------+---------+-----------+
|docstring |0      |0.00  |NC       |NC         |
+----------+-------+------+---------+-----------+
|comment   |2      |9.52  |NC       |NC         |
+----------+-------+------+---------+-----------+
|empty     |9      |42.86 |NC       |NC         |
+----------+-------+------+---------+-----------+



Duplication
-----------

+-------------------------+------+---------+-----------+
|                         |now   |previous |difference |
+=========================+======+=========+===========+
|nb duplicated lines      |0     |NC       |NC         |
+-------------------------+------+---------+-----------+
|percent duplicated lines |0.000 |NC       |NC         |
+-------------------------+------+---------+-----------+



Messages by category
--------------------

+-----------+-------+---------+-----------+
|type       |number |previous |difference |
+===========+=======+=========+===========+
|convention |4      |NC       |NC         |
+-----------+-------+---------+-----------+
|refactor   |0      |NC       |NC         |
+-----------+-------+---------+-----------+
|warning    |2      |NC       |NC         |
+-----------+-------+---------+-----------+
|error      |0      |NC       |NC         |
+-----------+-------+---------+-----------+



Messages
--------

+-------------------------+------------+
|message id               |occurrences |
+=========================+============+
|bad-indentation          |2           |
+-------------------------+------------+
|wrong-import-order       |1           |
+-------------------------+------------+
|trailing-newlines        |1           |
+-------------------------+------------+
|missing-module-docstring |1           |
+-------------------------+------------+
|invalid-name             |1           |
+-------------------------+------------+




------------------------------------------------------------------
Your code has been rated at 2.50/10 (previous run: 2.50/10, +0.00)

